%YAML 1.1
%TAG !u! tag:unity3d.com,2011:
--- !u!1045 &1
EditorBuildSettings:
  m_ObjectHideFlags: 0
  serializedVersion: 2
  m_Scenes:
  - enabled: 1
    path: Assets/Scenes/MainMenu.unity
    guid: 9e0ed861c69e3ed428345d29840a831e
  - enabled: 1
    path: Assets/Scenes/GameOver.unity
    guid: 1f832d3efe1d9644b9d7776e3db4ff3d
  - enabled: 1
    path: Assets/Scenes/Level1.unity
    guid: 2cda990e2423bbf4892e6590ba056729
  - enabled: 1
    path: Assets/Scenes/Level2.unity
    guid: b58a37e5249a9854bb3271b0f4168379
  - enabled: 1
    path: Assets/Scenes/NextLevel.unity
    guid: 2e956fa2071967c4184f8e3f5d82d01f
  m_configObjects: {}
